^C:\USERS\MARTIN.GRANT\DESKTOP\PROJECTS\SDL-NETWORKING-TEST\SDLSERVER\DEBUG\SERVER.OBJ|C:\USERS\MARTIN.GRANT\DESKTOP\PROJECTS\SDL-NETWORKING-TEST\SDLSERVER\DEBUG\SOURCE.OBJ
C:\USERS\MARTIN.GRANT\DESKTOP\PROJECTS\SDL-NETWORKING-TEST\DEBUG\SDLSERVER.EXE
C:\USERS\MARTIN.GRANT\DESKTOP\PROJECTS\SDL-NETWORKING-TEST\DEBUG\SDLSERVER.ILK
C:\USERS\MARTIN.GRANT\DESKTOP\PROJECTS\SDL-NETWORKING-TEST\DEBUG\SDLSERVER.PDB
